{
  "F": {
    "symbol": "F",
    "dxSymbol": "F",
    "exchange": "XNYS",
    "isoExchange": "XNYS",
    "bzExchange": "NYSE",
    "type": "STOCK",
    "name": "Ford Motor",
    "description": "Ford Motor Company Common Stock",
    "sector": "Consumer Cyclical",
    "industry": "Auto Manufacturers",
    "open": 11.67,
    "high": 11.74,
    "low": 11.61,
    "close": 11.68,
    "bidPrice": 11.69,
    "askPrice": 11.71,
    "askSize": 122,
    "bidSize": 1,
    "size": 1124891,
    "bidTime": 1490915512000,
    "askTime": 1490918400000,
    "lastTradePrice": 11.68,
    "lastTradeTime": 1490904087000,
    "volume": 28008241,
    "change": 0.0,
    "changePercent": 0.0,
    "previousClosePrice": 11.68,
    "fiftyTwoWeekHigh": 14.38,
    "fiftyTwoWeekLow": 11.02,
    "marketCap": 45727200000,
    "sharesOutstanding": 3915000000,
    "pe": 5.632075,
    "forwardPE": 6.5232,
    "dividendYield": 5.03,
    "payoutRatio": 28.3,
    "ethPrice": 11.69,
    "ethVolume": 418078,
    "ethTime": 1490916902000
  }
}